---
http_interactions:
- request:
    method: post
    uri: http://users.biznettechnologies.com/oauth/token
    body:
      encoding: UTF-8
      string: client_id=fd61a191c8b26b364b03eacac66913088abad7e5d144cf0e319d553335e6bbc3&client_secret=45669935c634a6cf28f630384cdd6d5bd490983f207005126a9fa1a52fcbbaf6&grant_type=client_credentials&scope=admin
    headers:
      Accept-Encoding:
      - gzip;q=1.0,deflate;q=0.6,identity;q=0.3
      Accept:
      - "*/*"
      User-Agent:
      - Ruby
  response:
    status:
      code: 200
      message: OK
    headers:
      Server:
      - Cowboy
      Connection:
      - close
      Date:
      - Thu, 17 Nov 2016 06:48:40 GMT
      X-Frame-Options:
      - SAMEORIGIN
      X-Xss-Protection:
      - 1; mode=block
      X-Content-Type-Options:
      - nosniff
      Cache-Control:
      - no-store
      Pragma:
      - no-cache
      Content-Type:
      - application/json; charset=utf-8
      Etag:
      - W/"ff2f69b36d3e5cfd69c84f10546fbc90"
      X-Request-Id:
      - be97678e-c774-4c8f-83b5-bac0f6a7d21f
      X-Runtime:
      - '0.080691'
      Via:
      - 1.1 vegur
    body:
      encoding: UTF-8
      string: '{"access_token":"4254d34862b477f95a8e84bd7264e82e78350858dafdec5f4f45737dc269b20e","token_type":"bearer","expires_in":86400,"scope":"admin","created_at":1479365320}'
    http_version: 
  recorded_at: Thu, 17 Nov 2016 06:48:41 GMT
- request:
    method: post
    uri: http://users.api.biznettechnologies.com/v1/users/search.json
    body:
      encoding: UTF-8
      string: role=ambassador
    headers:
      Authorization:
      - Bearer 4254d34862b477f95a8e84bd7264e82e78350858dafdec5f4f45737dc269b20e
  response:
    status:
      code: 200
      message: OK
    headers:
      Server:
      - Cowboy
      Connection:
      - close
      Date:
      - Thu, 17 Nov 2016 06:48:40 GMT
      X-Frame-Options:
      - SAMEORIGIN
      X-Xss-Protection:
      - 1; mode=block
      X-Content-Type-Options:
      - nosniff
      Content-Type:
      - application/json; charset=utf-8
      Etag:
      - W/"1d158a1344c279119dcd11e66b45158a"
      Cache-Control:
      - max-age=0, private, must-revalidate
      X-Request-Id:
      - 68147641-621a-41e3-9b14-a5fff36c871b
      X-Runtime:
      - '0.234240'
      Vary:
      - Origin
      Via:
      - 1.1 vegur
    body:
      encoding: UTF-8
      string: '{"success":true,"pagination":{"total":41,"page":1,"per_page":20,"page_count":3,"count":10},"status":{"code":200,"message":"OK"},"users":[{"id":46988,"uuid":"ca543be6-50de-41e9-9f57-b0f0725cca6a","name":"Fabio
        Fusco","email":"fabio@zuppler.ie","phone":null,"channel_id":1,"roles":["channel","ambassador"],"created_at":"2013-04-26T13:54:30.607Z","gravatar_id":"0648112758d94ea7edf0fb97421ca2f7","acls":{"channel":[1183]},"links":[{"name":"self","methods":["get"],"url":"/v1/users/ca543be6-50de-41e9-9f57-b0f0725cca6a"},{"name":"vaults","method":"get","url":"/v1/users/ca543be6-50de-41e9-9f57-b0f0725cca6a/vaults"},{"name":"grant","method":"put","url":"/v1/users/ca543be6-50de-41e9-9f57-b0f0725cca6a/grant"},{"name":"revoke","method":"put","url":"/v1/users/ca543be6-50de-41e9-9f57-b0f0725cca6a/revoke"},{"name":"touch","method":"put","url":"/v1/users/ca543be6-50de-41e9-9f57-b0f0725cca6a/touch"},{"name":"providers","method":"get","url":"/v1/users/ca543be6-50de-41e9-9f57-b0f0725cca6a/providers"}]},{"id":50635,"uuid":"21297db5-0b69-46f4-befd-1efa2fd9708b","name":"Ryan
        Everhart","email":"pawleysislandeats@gmail.com","phone":"845-642-4005","channel_id":1,"roles":["restaurant","channel","ambassador"],"created_at":"2013-05-21T20:42:29.509Z","gravatar_id":"06da6888ed257be6d693a8d15937d2d7","acls":{"restaurant":[1445,1506,1510,1517,1531,1532,1533,1542,1561,1562,1565,1583,1682,1702,1705,1706,1707,1708,1725,1726,1727,1728,1783,1786,1910,1911,1912,1914,1569,1570,1582,1683]},"links":[{"name":"self","methods":["get"],"url":"/v1/users/21297db5-0b69-46f4-befd-1efa2fd9708b"},{"name":"vaults","method":"get","url":"/v1/users/21297db5-0b69-46f4-befd-1efa2fd9708b/vaults"},{"name":"grant","method":"put","url":"/v1/users/21297db5-0b69-46f4-befd-1efa2fd9708b/grant"},{"name":"revoke","method":"put","url":"/v1/users/21297db5-0b69-46f4-befd-1efa2fd9708b/revoke"},{"name":"touch","method":"put","url":"/v1/users/21297db5-0b69-46f4-befd-1efa2fd9708b/touch"},{"name":"providers","method":"get","url":"/v1/users/21297db5-0b69-46f4-befd-1efa2fd9708b/providers"}]},{"id":54706,"uuid":"6d478a29-a1bf-47e6-96aa-f8857d679c1f","name":"David
        Ljubic","email":"admin@zuppler.com.au","phone":null,"channel_id":1,"roles":["ambassador"],"created_at":"2013-06-19T22:22:23.310Z","gravatar_id":"ad47e85f2801289b35c10a1479ce3a47","acls":{"restaurant":[1519,1805]},"links":[{"name":"self","methods":["get"],"url":"/v1/users/6d478a29-a1bf-47e6-96aa-f8857d679c1f"},{"name":"vaults","method":"get","url":"/v1/users/6d478a29-a1bf-47e6-96aa-f8857d679c1f/vaults"},{"name":"grant","method":"put","url":"/v1/users/6d478a29-a1bf-47e6-96aa-f8857d679c1f/grant"},{"name":"revoke","method":"put","url":"/v1/users/6d478a29-a1bf-47e6-96aa-f8857d679c1f/revoke"},{"name":"touch","method":"put","url":"/v1/users/6d478a29-a1bf-47e6-96aa-f8857d679c1f/touch"},{"name":"providers","method":"get","url":"/v1/users/6d478a29-a1bf-47e6-96aa-f8857d679c1f/providers"}]},{"id":56876,"uuid":"375f686b-ddfd-402c-adbc-49610e7dda41","name":"Naveen","email":"info@zuppler.ca","phone":null,"channel_id":1,"roles":["restaurant","ambassador"],"created_at":"2013-07-06T20:17:48.187Z","gravatar_id":"7e2f4c602bbcdbbcb99fed5f8113ae43","acls":{},"links":[{"name":"self","methods":["get"],"url":"/v1/users/375f686b-ddfd-402c-adbc-49610e7dda41"},{"name":"vaults","method":"get","url":"/v1/users/375f686b-ddfd-402c-adbc-49610e7dda41/vaults"},{"name":"grant","method":"put","url":"/v1/users/375f686b-ddfd-402c-adbc-49610e7dda41/grant"},{"name":"revoke","method":"put","url":"/v1/users/375f686b-ddfd-402c-adbc-49610e7dda41/revoke"},{"name":"touch","method":"put","url":"/v1/users/375f686b-ddfd-402c-adbc-49610e7dda41/touch"},{"name":"providers","method":"get","url":"/v1/users/375f686b-ddfd-402c-adbc-49610e7dda41/providers"}]},{"id":60817,"uuid":"5c818242-2fc9-43e0-b034-a55e7508b151","name":"Zuppler
        - Canada","email":"shiva+3@zuppler.com","phone":"","channel_id":1,"roles":["ambassador"],"created_at":"2013-08-03T17:36:18.295Z","gravatar_id":"23f8faa481ff5817e08d9243d6b21427","acls":{"restaurant":[1077,1491,1492,1503,1662,1847,1866,2008,2012,2078,2155,2158,2289,2291,2671,2965,3112,3114,3249,3250,3643,3718,3821,3822,3832,3833,3834,1489,1497,4411]},"links":[{"name":"self","methods":["get"],"url":"/v1/users/5c818242-2fc9-43e0-b034-a55e7508b151"},{"name":"vaults","method":"get","url":"/v1/users/5c818242-2fc9-43e0-b034-a55e7508b151/vaults"},{"name":"grant","method":"put","url":"/v1/users/5c818242-2fc9-43e0-b034-a55e7508b151/grant"},{"name":"revoke","method":"put","url":"/v1/users/5c818242-2fc9-43e0-b034-a55e7508b151/revoke"},{"name":"touch","method":"put","url":"/v1/users/5c818242-2fc9-43e0-b034-a55e7508b151/touch"},{"name":"providers","method":"get","url":"/v1/users/5c818242-2fc9-43e0-b034-a55e7508b151/providers"}]},{"id":60816,"uuid":"aea8fa44-d81d-491b-a309-b5d71d38969d","name":"Zuppler
        - IE","email":"menu@zuppler.ie","phone":"0838536000","channel_id":1,"roles":["ambassador"],"created_at":"2013-08-03T17:35:12.043Z","gravatar_id":"0014030353839f4b85122d026d92faea","acls":{"restaurant":[1013,1060,1128,1540,1590,1594,1595,1624,1701,1819,1822,1828,1870,1872,1887,1890,1894,1927,1928,2283,2284,2376,2378,2379,2392,2419,2422,2424,2574,2581,2590,2591,2592,2651,2654,2679,2683,2712,2713,2714,2715,2716,2717,2724,2739,2740,2741,2742,2743,2744,2745,2746,2747,2757,2769,2825,2826,2827,2828,2829,2830,2831,2832,2834,3023,3024,3025,3026,3027,3028,3029,3030,3031,3032,3033,3034,3092,3175,3176,3177,3178,3179,3180,3181,3182,3183,3184,3286,3287,3288,3289,3290,3291,3316,3317,3318,3319,3323,3327,3328,3329,3330,3331,3332,3333,3339,3340,3341,3342,3348,3349,3350,3351,3352,3353,3357,3358,3363,3367,3368,3369,3370,3371,3372,3376,3379,3380,3389,3390,3391,3403,3422,3423,3431,3462,3485,3489,3507,3508,3509,3510,3561,3562,3567,3568,3613,3614,3615,3621,3622,3623,3631,3645,3667,3682,3683,3684,3694,3698,3699,3700,3701,3702,3703,3704,3705,3706,3707,3714,3721,3725,3726,3727,3728,3743,3765,3768,3769,3770,3771,3778,3779,3780,3781,3792,3796,3797,3875,3876,3898,3917,3918,3922,3935,3944,3958,3959,3960,3961,3973,3974,3981,3982,3985,3997,4004,4069,4070,4071,4072,4073,4074,4075,4081,4104,4105,4106,4107,4108,4109,4126,4127,4144,4147,4158,4181,4182,4185,4220,4230,4244,4248,4251,4253,4254,4255,4256,4257,4258,4260,4265,4266,4267,4268,4269,4274,4275,4276,4280,4282,4284,4285,4287,4288,4292,4311,4312,4314,4315,4353,4357,4358,4356,4365,4366,4367,4388,4394,4419,4420,4421,4426,4433,4434,4435,4454,4455,4462,4463,4473,4480,4481,4493,4507,4508,4509,4510,4511,4512,4513,4514]},"links":[{"name":"self","methods":["get"],"url":"/v1/users/aea8fa44-d81d-491b-a309-b5d71d38969d"},{"name":"vaults","method":"get","url":"/v1/users/aea8fa44-d81d-491b-a309-b5d71d38969d/vaults"},{"name":"grant","method":"put","url":"/v1/users/aea8fa44-d81d-491b-a309-b5d71d38969d/grant"},{"name":"revoke","method":"put","url":"/v1/users/aea8fa44-d81d-491b-a309-b5d71d38969d/revoke"},{"name":"touch","method":"put","url":"/v1/users/aea8fa44-d81d-491b-a309-b5d71d38969d/touch"},{"name":"providers","method":"get","url":"/v1/users/aea8fa44-d81d-491b-a309-b5d71d38969d/providers"}]},{"id":66243,"uuid":"55409d39-fdcd-4de5-9b36-5a3ad8496da2","name":"Zuppler
        Malta","email":"shiva+4@zuppler.com","phone":null,"channel_id":1,"roles":["ambassador"],"created_at":"2013-09-07T17:14:09.104Z","gravatar_id":"628615235dfd0d9c9c32ee4ded2f663f","acls":{"restaurant":[1513,1520,1521,1522,1523,1524,1525,1526,1527,1528,1529,1530,1602,1687,1688,1692,1710,1711,1712,1713,1715,1716,1718,1719,1720,1721,1722,1741,1742,1810,1811,1812,1813,1814,1943,1944,1945,1946,1947,1948,1949,1950,2013,2014,2015,2016,2017,2018,2019,2020,2021,2022,2023,2241,2242,2243,2244,2245,2246,2247,2248,2249,2250,2311,2313,2314,2315,2316,2317,2318,2319,2320,2466,2467,2468,2469,2470,2471,2472,2473,2474,2475,2673,2691,2692,2694,2695,2696,2697,2698,2699,2787,2788,2789,2791,2792,2793,2794,2795,2796,2879,2880,2881,2882,2883,2884,2885,2886,2887,3125,3126,3127,3128,3129,3130,3131,3132,3134,3135,3136,3137,3138,3139,3497]},"links":[{"name":"self","methods":["get"],"url":"/v1/users/55409d39-fdcd-4de5-9b36-5a3ad8496da2"},{"name":"vaults","method":"get","url":"/v1/users/55409d39-fdcd-4de5-9b36-5a3ad8496da2/vaults"},{"name":"grant","method":"put","url":"/v1/users/55409d39-fdcd-4de5-9b36-5a3ad8496da2/grant"},{"name":"revoke","method":"put","url":"/v1/users/55409d39-fdcd-4de5-9b36-5a3ad8496da2/revoke"},{"name":"touch","method":"put","url":"/v1/users/55409d39-fdcd-4de5-9b36-5a3ad8496da2/touch"},{"name":"providers","method":"get","url":"/v1/users/55409d39-fdcd-4de5-9b36-5a3ad8496da2/providers"}]},{"id":72810,"uuid":"642f17ae-d4b3-4bbd-9f96-aa32155066b3","name":"Mary
        Pucetas","email":"mary@zuppler.com","phone":"555-555-5555","channel_id":1,"roles":["content_management","ambassador","config"],"created_at":"2013-10-16T16:20:21.291Z","gravatar_id":"db77f187da20befd29c0a0d01f4c6300","acls":{"restaurant":[3522,3543,3574,3584,3586]},"links":[{"name":"self","methods":["get"],"url":"/v1/users/642f17ae-d4b3-4bbd-9f96-aa32155066b3"},{"name":"vaults","method":"get","url":"/v1/users/642f17ae-d4b3-4bbd-9f96-aa32155066b3/vaults"},{"name":"grant","method":"put","url":"/v1/users/642f17ae-d4b3-4bbd-9f96-aa32155066b3/grant"},{"name":"revoke","method":"put","url":"/v1/users/642f17ae-d4b3-4bbd-9f96-aa32155066b3/revoke"},{"name":"touch","method":"put","url":"/v1/users/642f17ae-d4b3-4bbd-9f96-aa32155066b3/touch"},{"name":"providers","method":"get","url":"/v1/users/642f17ae-d4b3-4bbd-9f96-aa32155066b3/providers"}]},{"id":2672,"uuid":"8f29488b-e291-4dd2-b9f7-f3ae48ff8d79","name":"Petrica
        G3","email":"petrica+k1@gmail.com","phone":null,"channel_id":1,"roles":["ambassador"],"created_at":"2010-12-10T12:20:41.000Z","gravatar_id":"ffb068d3631842cd076635a9e3d473d5","acls":{},"links":[{"name":"self","methods":["get"],"url":"/v1/users/8f29488b-e291-4dd2-b9f7-f3ae48ff8d79"},{"name":"vaults","method":"get","url":"/v1/users/8f29488b-e291-4dd2-b9f7-f3ae48ff8d79/vaults"},{"name":"grant","method":"put","url":"/v1/users/8f29488b-e291-4dd2-b9f7-f3ae48ff8d79/grant"},{"name":"revoke","method":"put","url":"/v1/users/8f29488b-e291-4dd2-b9f7-f3ae48ff8d79/revoke"},{"name":"touch","method":"put","url":"/v1/users/8f29488b-e291-4dd2-b9f7-f3ae48ff8d79/touch"},{"name":"providers","method":"get","url":"/v1/users/8f29488b-e291-4dd2-b9f7-f3ae48ff8d79/providers"}]},{"id":5622,"uuid":"fea90a85-4675-4ce7-a122-32a0d608e46d","name":"AJ","email":"support@brandonlewismedia.com","phone":"217-552-8238","channel_id":1,"roles":["ambassador","channel","integration"],"created_at":"2011-05-09T01:29:32.000Z","gravatar_id":"1f3f21139dce4ca5ba996251453d8151","acls":{"restaurant":[637,640,641,642,643,645,648,649,651,652,654,657,658,663,678,679,680,684,690,694,728,742,743,746,750,753,754,755,773,774,778,824,884,911,912,1586,1933],"channel":[94]},"links":[{"name":"self","methods":["get"],"url":"/v1/users/fea90a85-4675-4ce7-a122-32a0d608e46d"},{"name":"vaults","method":"get","url":"/v1/users/fea90a85-4675-4ce7-a122-32a0d608e46d/vaults"},{"name":"grant","method":"put","url":"/v1/users/fea90a85-4675-4ce7-a122-32a0d608e46d/grant"},{"name":"revoke","method":"put","url":"/v1/users/fea90a85-4675-4ce7-a122-32a0d608e46d/revoke"},{"name":"touch","method":"put","url":"/v1/users/fea90a85-4675-4ce7-a122-32a0d608e46d/touch"},{"name":"providers","method":"get","url":"/v1/users/fea90a85-4675-4ce7-a122-32a0d608e46d/providers"}]}]}'
    http_version: 
  recorded_at: Thu, 17 Nov 2016 06:48:41 GMT
recorded_with: VCR 3.0.3
